My sample of unicode output

Entreé and ‘

.
├── bin
│   └── sancli
├── libsan
│   ├── array
│   │   ├── dell
│   │   │   ├── eqlogic.py
│   │   │   ├── eqlparse_show.py
│   │   │   └── __init__.py
│   │   ├── emc
│   │   │   ├── __init__.py
│   │   │   └── vnx.py
│   │   ├── __init__.py
│   │   ├── linux
│   │   │   ├── __init__.py
│   │   │   └── lio.py
│   │   └── netapp
│   │       ├── __init__.py
│   │       └── ontap.py

